{
    "identityPoolName": "kraken204338d4_identitypool_204338d4",
    "allowUnauthenticatedIdentities": true,
    "lambdaLogPolicy": "kraken_204338d4_lambda_log_policy",
    "openIdLambdaRoleName": "kraken_204338d4_openid_lambda_role",
    "openIdRolePolicy": "kraken_204338d4_openid_pass_role_policy",
    "openIdLambdaIAMPolicy": "kraken_204338d4_openid_lambda_iam_policy",
    "openIdLogPolicy": "kraken_204338d4_openid_lambda_log_policy",
    "userPoolName": "kraken204338d4_userpool_204338d4",
    "autoVerifiedAttributes": [
        "email"
    ],
    "mfaConfiguration": "OFF",
    "mfaTypes": [
        "SMS Text Message"
    ],
    "roleName": "kraken204338d4_sns-role",
    "roleExternalId": "kraken204338d4_role_external_id",
    "policyName": "kraken204338d4-sns-policy",
    "smsAuthenticationMessage": "Your authentication code is {####}",
    "smsVerificationMessage": "Your verification code is {####}",
    "emailVerificationSubject": "Your verification code",
    "emailVerificationMessage": "Your verification code is {####}",
    "defaultPasswordPolicy": false,
    "passwordPolicyMinLength": 8,
    "passwordPolicyCharacters": [],
    "requiredAttributes": [
        "email"
    ],
    "userpoolClientName": "kraken204338d4_app_client",
    "userpoolClientGenerateSecret": true,
    "userpoolClientRefreshTokenValidity": 30,
    "userpoolClientWriteAttributes": [
        "email"
    ],
    "userpoolClientReadAttributes": [
        "email"
    ],
    "mfaLambdaRole": "kraken204338d4_totp_lambda_role",
    "mfaLambdaLogPolicy": "kraken204338d4_totp_lambda_log_policy",
    "mfaPassRolePolicy": "kraken204338d4_totp_pass_role_policy",
    "mfaLambdaIAMPolicy": "kraken204338d4_totp_lambda_iam_policy",
    "userpoolClientLambdaRole": "kraken204338d4_userpoolclient_lambda_role",
    "userpoolClientLogPolicy": "kraken204338d4_userpoolclient_lambda_log_policy",
    "userpoolClientLambdaPolicy": "kraken204338d4_userpoolclient_lambda_iam_policy",
    "userpoolClientSetAttributes": false,
    "resourceName": "kraken204338d4",
    "authSelections": "identityPoolAndUserPool",
    "authRoleName": {
        "Ref": "AuthRoleName"
    },
    "unauthRoleName": {
        "Ref": "UnauthRoleName"
    },
    "authRoleArn": {
        "Fn::GetAtt": [
            "AuthRole",
            "Arn"
        ]
    },
    "unauthRoleArn": {
        "Fn::GetAtt": [
            "UnauthRole",
            "Arn"
        ]
    },
    "useDefault": "default"
}